[
	{
		"name": "id",
		"dbType": "increments",
		"htmlType": "",
		"validations": "",
		"searchable": false,
		"fillable": false,
		"primary": true,
		"inForm": false,
		"inIndex": false
	},
	{
		"name": "os",
		"dbType": "string",
		"htmlType": "text",
		"validations": "required",
		"searchable": true
	},
	{
		"name": "device_token",
		"dbType": "text",
		"htmlType": "text",
		"validations": "required",
		"searchable": true
	},
	{
		"name": "language",
		"dbType": "string",
		"htmlType": "text",
		"validations": "required",
		"searchable": true
	},
	{
		"name": "topics",
		"dbType": "string:nullable",
		"htmlType": "textarea"
	},
	{
		"name": "created_at",
		"dbType": "timestamp",
		"htmlType": "",
		"validations": "",
		"searchable": false,
		"fillable": false,
		"primary": false,
		"inForm": false,
		"inIndex": false
	},
	{
		"name": "updated_at",
		"dbType": "timestamp",
		"htmlType": "",
		"validations": "",
		"searchable": false,
		"fillable": false,
		"primary": false,
		"inForm": false,
		"inIndex": false
	}
]