[
	{
		"name": "id",
		"dbType": "increments",
		"htmlType": "",
		"validations": "",
		"searchable": false,
		"fillable": false,
		"primary": true,
		"inForm": false,
		"inIndex": false
	},
	{
		"name": "title",
		"dbType": "string",
		"htmlType": "text",
		"validations": "required",
		"searchable": true
	},
	{
		"name": "type",
		"dbType": "string",
		"htmlType": "text",
		"validations": "required",
		"searchable": true
	},
	{
		"name": "description",
		"dbType": "text:nullable",
		"htmlType": "textarea"
	},
	{
		"name": "image",
		"dbType": "string",
		"htmlType": "file",
		"validations": "file|image"
	},
	{
		"name": "url",
		"dbType": "text:nullable",
		"htmlType": "text"
	},
	{
		"name": "price",
		"dbType": "text:nullable",
		"htmlType": "number"
	},
	{
		"name": "sale",
		"dbType": "text:nullable",
		"htmlType": "number"
	},
	{
		"name": "start_date",
		"dbType": "dateTime:nullable",
		"htmlType": "date"
	},
	{
		"name": "end_date",
		"dbType": "dateTime:nullable",
		"htmlType": "date"
	},
	{
		"name": "categories",
		"type": "relation",
		"relation": "mtm,Category,category_promotion,category_id,promotion_id"
	},
	{
		"name": "created_at",
		"dbType": "timestamp",
		"htmlType": "",
		"validations": "",
		"searchable": false,
		"fillable": false,
		"primary": false,
		"inForm": false,
		"inIndex": false
	},
	{
		"name": "updated_at",
		"dbType": "timestamp",
		"htmlType": "",
		"validations": "",
		"searchable": false,
		"fillable": false,
		"primary": false,
		"inForm": false,
		"inIndex": false
	}
]